^C:\USERS\KAWAMURA\DOCUMENTS\LOCAL\IFC ENGINE\IFC ENGINE\IFC ENGINE\X64\DEBUG\SOURCE.OBJ
C:\USERS\KAWAMURA\DOCUMENTS\LOCAL\IFC ENGINE\IFC ENGINE\X64\DEBUG\IFC ENGINE.EXE
C:\USERS\KAWAMURA\DOCUMENTS\LOCAL\IFC ENGINE\IFC ENGINE\X64\DEBUG\IFC ENGINE.ILK
C:\USERS\KAWAMURA\DOCUMENTS\LOCAL\IFC ENGINE\IFC ENGINE\X64\DEBUG\IFC ENGINE.PDB
