^C:\USERS\KAWAMURA\DOCUMENTS\LOCAL\OBJMTLCONVERTER\OBJCONVERTER\OBJCONVERTER\DEBUG\SOURCE.OBJ
C:\USERS\KAWAMURA\DOCUMENTS\LOCAL\OBJMTLCONVERTER\OBJCONVERTER\DEBUG\OBJCONVERTER.ILK
C:\USERS\KAWAMURA\DOCUMENTS\LOCAL\OBJMTLCONVERTER\OBJCONVERTER\DEBUG\OBJCONVERTER.EXE
C:\USERS\KAWAMURA\DOCUMENTS\LOCAL\OBJMTLCONVERTER\OBJCONVERTER\DEBUG\OBJCONVERTER.PDB
